{   
"config": "large-miura",
"nodes": [
        ],
"panels": [
        ],
"supports": [
    [0, 1, 0, 1],
    [1, 1, 0, 0],
    [2, 1, 0, 1],
    [3, 1, 0, 0],
    [4, 1, 0, 1],
    [5, 1, 0, 0],
    [6, 1, 1, 1],
    [35, 0, 0, 1],
    [37, 0, 0, 1],
    [39, 0, 0, 1],
    [41, 0, 0, 1]
        ],
"loads": [
    [35, 1e-4, -0.6e-4, 0],
    [36, 1e-4, -0.6e-4, 0],
    [37, 1e-4, -0.6e-4, 0],
    [38, 1e-4, 0, 0],
    [39, 1e-4, 0, 0],
    [40, 1e-4, 0, 0],
    [41, 1e-4, 0, 0]
        ],
"relevant_dof": 105,
"ModElastic": 4e9,
"Poisson": 0.3,
"Thickness": 0.08e-3,
"LScaleFactor": 2,
"maxIcr": 100,
"initialLoadFactor": 0.00001,
"maxLmd": 500000,
"tol": 1e-7,
"multiply_load": 1,
"verbose": 1
}
