// Mesh size
ms = 0.001;

// Nodes
Point(1) = {-0.3317116041186931, -0.3034171087453251, 0.019148490078745327, ms};
Point(2) = {-0.28660235355912933, -0.25918934096819224, 0.11877434242645232, ms};
Point(3) = {-0.3104427816771709, -0.17044908826308103, 0.09971194672613226, ms};
Point(4) = {-0.269900698339429, -0.0873985441726725, 0.1895351919004251, ms};
Point(5) = {-0.3013826111163487, -0.02624177761489415, 0.1416938666848982, ms};
Point(6) = {-0.28269266681520655, 0.09178804144529812, 0.17884175943593647, ms};
Point(7) = {-0.3047619669845487, 0.10713109233350677, 0.13630995551822658, ms};
Point(8) = {-0.2591270935573948, 0.2096948840543608, 0.14115867234800245, ms};
Point(9) = {-0.2972120184392586, 0.22364566473657638, 0.05571792381288593, ms};
Point(10) = {-0.25328483919580064, -0.23629080139424627, 0.003566910609533823, ms};
Point(11) = {-0.23839683698969505, -0.18101146601020643, 0.08488334274363268, ms};
Point(12) = {-0.2282032767466402, -0.08090391453811599, 0.069294508930709, ms};
Point(13) = {-0.22086671467935276, -0.032304973893430726, 0.1321727295417522, ms};
Point(14) = {-0.22183696946637185, 0.04972826037302682, 0.07177688482503856, ms};
Point(15) = {-0.21775799135810592, 0.11220346998929537, 0.10997793800271072, ms};
Point(16) = {-0.22765565759442866, 0.17436043457807698, 0.03248765131884085, ms};
Point(17) = {-0.21250931319002406, 0.2828664332895815, 0.0478984910665171, ms};
Point(18) = {-0.24741443633147228, 0.31539168888015834, -0.03274891210867794, ms};
Point(19) = {-0.162756398925375, -0.29915579792418545, -0.0959963369672744, ms};
Point(20) = {-0.15859045506200234, -0.2724557619089386, 0.0040282252101180305, ms};
Point(21) = {-0.15835402917144173, -0.16740254185990222, -0.0018572804335609781, ms};
Point(22) = {-0.14820333110550993, -0.1188681645391593, 0.08225430090889625, ms};
Point(23) = {-0.1569271115078189, -0.039061206274264224, 0.033995979316450944, ms};
Point(24) = {-0.1388326521103817, 0.0377838533255603, 0.08389380274074011, ms};
Point(25) = {-0.15999772677583912, 0.10225114252216247, 0.014396784277088737, ms};
Point(26) = {-0.1390897331745253, 0.2042576328335492, 0.029232523586798807, ms};
Point(27) = {-0.15598514701156255, 0.24710142910553112, -0.049235264488183716, ms};
Point(28) = {-0.0885570383740673, -0.24400570946588884, -0.07607415653957446, ms};
Point(29) = {-0.07490641808571459, -0.2209228965747786, 0.023016964560341545, ms};
Point(30) = {-0.07657389080678448, -0.09791647298879011, 0.009506233837151878, ms};
Point(31) = {-0.07634799209819476, -0.05930433988270671, 0.07646736686181312, ms};
Point(32) = {-0.07849205821652597, 0.020821950140939745, -0.0002968988805517753, ms};
Point(33) = {-0.07119190530749318, 0.1110678542515466, 0.046381649298675276, ms};
Point(34) = {-0.07337922772154605, 0.1583134514745185, -0.044253233704974464, ms};
Point(35) = {-0.0650109861137056, 0.266070123063407, -0.02434417313656019, ms};
Point(36) = {-0.06832049455847738, 0.3010457139552604, -0.11875826811433463, ms};
Point(37) = {0.00030682214152439387, -0.26929963975868704, -0.12759239051997076, ms};
Point(38) = {0.00021367994084828625, -0.2838615666580603, -0.040289387052971457, ms};
Point(39) = {0.00012741551359533198, -0.16529611062402938, -0.029522055401377423, ms};
Point(40) = {-6.688287283724962e-05, -0.13014959820172264, 0.0630608276554252, ms};
Point(41) = {-4.4415794958359985e-05, -0.0459641338152983, 0.0022741725139794255, ms};
Point(42) = {-0.00014136934130751922, 0.022565213710488075, 0.056605751527969414, ms};
Point(43) = {-0.00017419986067649943, 0.09243773246500317, -0.02877981470516959, ms};
Point(44) = {-0.00011168821897677861, 0.17945228305819816, 0.0033365447983567456, ms};
Point(45) = {-0.00015471779680240012, 0.2507101464966927, -0.1018554082231372, ms};
Point(46) = {0.08875646433498594, -0.2432125615156481, -0.07586271387803054, ms};
Point(47) = {0.07510285593478326, -0.22077092026495615, 0.023284073821529132, ms};
Point(48) = {0.07663385323881837, -0.09770248964979435, 0.009776912110898634, ms};
Point(49) = {0.07593978528492046, -0.05919624258099498, 0.07634676802209328, ms};
Point(50) = {0.07853647401148434, 0.020968944433676, -9.880354721673401e-05, ms};
Point(51) = {0.0708348349485859, 0.11104801902686112, 0.04661129384085026, ms};
Point(52) = {0.07307577831479033, 0.15817421340882915, -0.04421747019031123, ms};
Point(53) = {0.06467051050387551, 0.26611609638769423, -0.024429288035230937, ms};
Point(54) = {0.06799566430286424, 0.3008122481704094, -0.11899561210491345, ms};
Point(55) = {0.1630003709381741, -0.29768810312705896, -0.09666385883084382, ms};
Point(56) = {0.15896465342958896, -0.27206945269768895, 0.003861877337886954, ms};
Point(57) = {0.15851134785697774, -0.1670896569898901, -0.001243883375632972, ms};
Point(58) = {0.14819683781517237, -0.11796369761511025, 0.08295637500723428, ms};
Point(59) = {0.15687690789492165, -0.03898468855588267, 0.034792186648347656, ms};
Point(60) = {0.13867865157452652, 0.038181764296188796, 0.08461496089315824, ms};
Point(61) = {0.15965237504499946, 0.10213644074571254, 0.014564809680327313, ms};
Point(62) = {0.13843554725295765, 0.20424172588512526, 0.029273424181217342, ms};
Point(63) = {0.15549316078174605, 0.24675362710836007, -0.04936992338499728, ms};
Point(64) = {0.25322986014869264, -0.23446088815622132, 0.002790172809853263, ms};
Point(65) = {0.23841029515021736, -0.18131511943299988, 0.08566231437595892, ms};
Point(66) = {0.22806843916296116, -0.08006172992081144, 0.06993867052215226, ms};
Point(67) = {0.2205701940279044, -0.03236700482366887, 0.13311684922224176, ms};
Point(68) = {0.22168185343870858, 0.050461597264429864, 0.07201060661831508, ms};
Point(69) = {0.21728822597966166, 0.11314537008959918, 0.11075462119216856, ms};
Point(70) = {0.22693709424955, 0.17436855367715873, 0.032254890096205205, ms};
Point(71) = {0.2119401681607039, 0.28288154567190804, 0.0474652747646635, ms};
Point(72) = {0.24661469670309902, 0.3151469504976241, -0.03338817187079456, ms};
Point(73) = {0.33259641075098895, -0.3012308725146578, 0.016457508860284284, ms};
Point(74) = {0.2879278091303855, -0.2592539088984245, 0.116907438597317, ms};
Point(75) = {0.31063988437632795, -0.16992071198875056, 0.09935071019051654, ms};
Point(76) = {0.27025727720233084, -0.0877166109643123, 0.18958883066131405, ms};
Point(77) = {0.30094907384163994, -0.025801618717768794, 0.14229240263764176, ms};
Point(78) = {0.2830947000674463, 0.09179088411772285, 0.17844128122513672, ms};
Point(79) = {0.30449161783686435, 0.10801112057581223, 0.13634781885159758, ms};
Point(80) = {0.25780783709201766, 0.2101109383782216, 0.1410523593957389, ms};
Point(81) = {0.29636126563269405, 0.2231972600410469, 0.05557487837377765, ms};
Point(82) = {-0.2699812949807718, -0.2462738594683466, 0.0559042074827185, ms};
Point(83) = {-0.20993386452753127, -0.25187816888038833, 0.002378302873278594, ms};
Point(84) = {-0.12056014234995678, -0.2558391563252232, -0.04158566058134577, ms};
Point(85) = {-0.04272117212550585, -0.2604831514673874, -0.06099703566066743, ms};
Point(86) = {0.04315519307952406, -0.26027375984631834, -0.06068813376085745, ms};
Point(87) = {0.12066075442406816, -0.2551157069805919, -0.04168263354044655, ms};
Point(88) = {0.20985081797763222, -0.25078059281889115, 0.002115741442671598, ms};
Point(89) = {0.2707321274546631, -0.24530364885573805, 0.05506739788643441, ms};
Point(90) = {-0.25919101618836554, -0.1782340461375064, 0.08803094197038666, ms};
Point(91) = {-0.197881632066552, -0.17324517851324925, 0.036621723153727304, ms};
Point(92) = {-0.1201951634554082, -0.19024443929230367, 0.008302061629181543, ms};
Point(93) = {-0.037279481882358044, -0.19136655904418334, -0.007162677782070803, ms};
Point(94) = {0.0375336270099047, -0.1912517391522349, -0.0069657196693742665, ms};
Point(95) = {0.12004290716319098, -0.1899486241971607, 0.00875845600781093, ms};
Point(96) = {0.19782719339226126, -0.17310581063752714, 0.03721174888344409, ms};
Point(97) = {0.259742264175461, -0.17816820639950104, 0.08854877013585077, ms};
Point(98) = {-0.24962047464884934, -0.08396790977893508, 0.12404460756530533, ms};
Point(99) = {-0.1954177079972092, -0.09577726585473344, 0.07284198040519398, ms};
Point(100) = {-0.11266164370208669, -0.10702291890080773, 0.04233461420162225, ms};
Point(101) = {-0.04069415890563739, -0.11190828551384338, 0.03166322252132301, ms};
Point(102) = {0.04080194810169374, -0.11159805314767178, 0.031718940487484866, ms};
Point(103) = {0.11236347754055584, -0.10648878967076247, 0.04261254371792282, ms};
Point(104) = {0.19512458328638568, -0.09493144342576858, 0.07353860193259229, ms};
Point(105) = {0.24968833116030337, -0.08351263209500942, 0.12431788272836604, ms};
Point(106) = {-0.25005941726662945, -0.03123061518304622, 0.13451474609159728, ms};
Point(107) = {-0.18664054771031266, -0.0358533227717293, 0.07503224609828062, ms};
Point(108) = {-0.11841023205269546, -0.049234207532565195, 0.050772557560477494, ms};
Point(109) = {-0.03642559528465991, -0.05268043015522955, 0.03405111385780182, ms};
Point(110) = {0.036335490751351826, -0.05262015817726841, 0.03413394889253815, ms};
Point(111) = {0.11826479095052474, -0.049180812384831366, 0.051097008367028726, ms};
Point(112) = {0.18626084628923145, -0.035797952312572455, 0.07561701936958487, ms};
Point(113) = {0.25022442463595873, -0.03105132450628366, 0.13534535287508254, ms};
Point(114) = {-0.25050693622557196, 0.06880314097012694, 0.11789852373885039, ms};
Point(115) = {-0.1932665486392405, 0.04517880812957612, 0.0747681996854448, ms};
Point(116) = {-0.11162452252865397, 0.030612030363233327, 0.04090968935945401, ms};
Point(117) = {-0.03947729218182216, 0.02201532066459518, 0.02566465674251794, ms};
Point(118) = {0.03927617102590307, 0.02211546514297901, 0.02584950389251947, ms};
Point(119) = {0.11146406349609607, 0.030870777609363974, 0.04122243773584772, ms};
Point(120) = {0.19297430356319942, 0.04587555852072291, 0.07513320562636346, ms};
Point(121) = {0.2507386281231571, 0.06930308727519034, 0.11828770306752343, ms};
Point(122) = {-0.26757681881366746, 0.10941404547553563, 0.12520640975799652, ms};
Point(123) = {-0.18681817188397581, 0.10558576769828447, 0.05437447646913803, ms};
Point(124) = {-0.11451317614272405, 0.10575401812642854, 0.028846130001839547, ms};
Point(125) = {-0.03291609988270491, 0.09941706073650643, 0.0021390610396134283, ms};
Point(126) = {0.03251013626901167, 0.09933375307503456, 0.0021147508889747396, ms};
Point(127) = {0.11428090379535365, 0.10560737391515936, 0.02914773968406602, ms};
Point(128) = {0.18635102717066035, 0.10587191475181071, 0.05466185519117599, ms};
Point(129) = {0.2673985341858225, 0.1103501427072375, 0.12572733441193876, ms};
Point(130) = {-0.2445935611518229, 0.19335120428378508, 0.09466116815733197, ms};
Point(131) = {-0.18577153905472732, 0.18850645673002717, 0.029461829556464106, ms};
Point(132) = {-0.1108468136022072, 0.18303218736132773, -0.005739068937015812, ms};
Point(133) = {-0.03628682188909373, 0.16842385869871723, -0.02266005447510424, ms};
Point(134) = {0.03604334640509269, 0.16841604519830747, -0.02256592636631532, ms};
Point(135) = {0.11041367245339669, 0.18303197514099745, -0.005609888715925469, ms};
Point(136) = {0.18529563369970858, 0.1884189325817299, 0.02935967909123864, ms};
Point(137) = {0.24358635569893203, 0.19368044233706125, 0.09458974046236662, ms};
Point(138) = {-0.25099940601349663, 0.25601617839673013, 0.050953918559142025, ms};
Point(139) = {-0.18587379490297126, 0.26406940242989996, -0.0012970112348482526, ms};
Point(140) = {-0.11263034951151485, 0.2550359409114931, -0.03940763874254211, ms};
Point(141) = {-0.030045169560269626, 0.25542388337251865, -0.06795322701989892, ms};
Point(142) = {0.029768939469006186, 0.2554149187131153, -0.06815651204371015, ms};
Point(143) = {0.11208179589051365, 0.2548645201222644, -0.03942071428581595, ms};
Point(144) = {0.18530733663679702, 0.2638760145399122, -0.0016787342960364778, ms};
Point(145) = {0.2499029492773986, 0.2560790991754542, 0.05060970738858163, ms};

// Lines
Line(1) = {1, 2};
Line(2) = {2, 82};
Line(3) = {82, 1};
Line(4) = {1, 10};
Line(5) = {10, 82};
Line(6) = {82, 1};
Line(7) = {2, 3};
Line(8) = {3, 90};
Line(9) = {90, 2};
Line(10) = {2, 11};
Line(11) = {11, 82};
Line(12) = {82, 2};
Line(13) = {2, 11};
Line(14) = {11, 90};
Line(15) = {90, 2};
Line(16) = {3, 4};
Line(17) = {4, 98};
Line(18) = {98, 3};
Line(19) = {3, 12};
Line(20) = {12, 90};
Line(21) = {90, 3};
Line(22) = {3, 12};
Line(23) = {12, 98};
Line(24) = {98, 3};
Line(25) = {4, 5};
Line(26) = {5, 106};
Line(27) = {106, 4};
Line(28) = {4, 13};
Line(29) = {13, 98};
Line(30) = {98, 4};
Line(31) = {4, 13};
Line(32) = {13, 106};
Line(33) = {106, 4};
Line(34) = {5, 6};
Line(35) = {6, 114};
Line(36) = {114, 5};
Line(37) = {5, 14};
Line(38) = {14, 106};
Line(39) = {106, 5};
Line(40) = {5, 14};
Line(41) = {14, 114};
Line(42) = {114, 5};
Line(43) = {6, 7};
Line(44) = {7, 122};
Line(45) = {122, 6};
Line(46) = {6, 15};
Line(47) = {15, 114};
Line(48) = {114, 6};
Line(49) = {6, 15};
Line(50) = {15, 122};
Line(51) = {122, 6};
Line(52) = {7, 8};
Line(53) = {8, 130};
Line(54) = {130, 7};
Line(55) = {7, 16};
Line(56) = {16, 122};
Line(57) = {122, 7};
Line(58) = {7, 16};
Line(59) = {16, 130};
Line(60) = {130, 7};
Line(61) = {8, 9};
Line(62) = {9, 138};
Line(63) = {138, 8};
Line(64) = {8, 17};
Line(65) = {17, 130};
Line(66) = {130, 8};
Line(67) = {8, 17};
Line(68) = {17, 138};
Line(69) = {138, 8};
Line(70) = {9, 18};
Line(71) = {18, 138};
Line(72) = {138, 9};
Line(73) = {10, 11};
Line(74) = {11, 82};
Line(75) = {82, 10};
Line(76) = {10, 11};
Line(77) = {11, 83};
Line(78) = {83, 10};
Line(79) = {10, 19};
Line(80) = {19, 83};
Line(81) = {83, 10};
Line(82) = {11, 12};
Line(83) = {12, 90};
Line(84) = {90, 11};
Line(85) = {11, 12};
Line(86) = {12, 91};
Line(87) = {91, 11};
Line(88) = {11, 20};
Line(89) = {20, 83};
Line(90) = {83, 11};
Line(91) = {11, 20};
Line(92) = {20, 91};
Line(93) = {91, 11};
Line(94) = {12, 13};
Line(95) = {13, 98};
Line(96) = {98, 12};
Line(97) = {12, 13};
Line(98) = {13, 99};
Line(99) = {99, 12};
Line(100) = {12, 21};
Line(101) = {21, 91};
Line(102) = {91, 12};
Line(103) = {12, 21};
Line(104) = {21, 99};
Line(105) = {99, 12};
Line(106) = {13, 14};
Line(107) = {14, 106};
Line(108) = {106, 13};
Line(109) = {13, 14};
Line(110) = {14, 107};
Line(111) = {107, 13};
Line(112) = {13, 22};
Line(113) = {22, 99};
Line(114) = {99, 13};
Line(115) = {13, 22};
Line(116) = {22, 107};
Line(117) = {107, 13};
Line(118) = {14, 15};
Line(119) = {15, 114};
Line(120) = {114, 14};
Line(121) = {14, 15};
Line(122) = {15, 115};
Line(123) = {115, 14};
Line(124) = {14, 23};
Line(125) = {23, 107};
Line(126) = {107, 14};
Line(127) = {14, 23};
Line(128) = {23, 115};
Line(129) = {115, 14};
Line(130) = {15, 16};
Line(131) = {16, 122};
Line(132) = {122, 15};
Line(133) = {15, 16};
Line(134) = {16, 123};
Line(135) = {123, 15};
Line(136) = {15, 24};
Line(137) = {24, 115};
Line(138) = {115, 15};
Line(139) = {15, 24};
Line(140) = {24, 123};
Line(141) = {123, 15};
Line(142) = {16, 17};
Line(143) = {17, 130};
Line(144) = {130, 16};
Line(145) = {16, 17};
Line(146) = {17, 131};
Line(147) = {131, 16};
Line(148) = {16, 25};
Line(149) = {25, 123};
Line(150) = {123, 16};
Line(151) = {16, 25};
Line(152) = {25, 131};
Line(153) = {131, 16};
Line(154) = {17, 18};
Line(155) = {18, 138};
Line(156) = {138, 17};
Line(157) = {17, 18};
Line(158) = {18, 139};
Line(159) = {139, 17};
Line(160) = {17, 26};
Line(161) = {26, 131};
Line(162) = {131, 17};
Line(163) = {17, 26};
Line(164) = {26, 139};
Line(165) = {139, 17};
Line(166) = {18, 27};
Line(167) = {27, 139};
Line(168) = {139, 18};
Line(169) = {19, 20};
Line(170) = {20, 83};
Line(171) = {83, 19};
Line(172) = {19, 20};
Line(173) = {20, 84};
Line(174) = {84, 19};
Line(175) = {19, 28};
Line(176) = {28, 84};
Line(177) = {84, 19};
Line(178) = {20, 21};
Line(179) = {21, 91};
Line(180) = {91, 20};
Line(181) = {20, 21};
Line(182) = {21, 92};
Line(183) = {92, 20};
Line(184) = {20, 29};
Line(185) = {29, 84};
Line(186) = {84, 20};
Line(187) = {20, 29};
Line(188) = {29, 92};
Line(189) = {92, 20};
Line(190) = {21, 22};
Line(191) = {22, 99};
Line(192) = {99, 21};
Line(193) = {21, 22};
Line(194) = {22, 100};
Line(195) = {100, 21};
Line(196) = {21, 30};
Line(197) = {30, 92};
Line(198) = {92, 21};
Line(199) = {21, 30};
Line(200) = {30, 100};
Line(201) = {100, 21};
Line(202) = {22, 23};
Line(203) = {23, 107};
Line(204) = {107, 22};
Line(205) = {22, 23};
Line(206) = {23, 108};
Line(207) = {108, 22};
Line(208) = {22, 31};
Line(209) = {31, 100};
Line(210) = {100, 22};
Line(211) = {22, 31};
Line(212) = {31, 108};
Line(213) = {108, 22};
Line(214) = {23, 24};
Line(215) = {24, 115};
Line(216) = {115, 23};
Line(217) = {23, 24};
Line(218) = {24, 116};
Line(219) = {116, 23};
Line(220) = {23, 32};
Line(221) = {32, 108};
Line(222) = {108, 23};
Line(223) = {23, 32};
Line(224) = {32, 116};
Line(225) = {116, 23};
Line(226) = {24, 25};
Line(227) = {25, 123};
Line(228) = {123, 24};
Line(229) = {24, 25};
Line(230) = {25, 124};
Line(231) = {124, 24};
Line(232) = {24, 33};
Line(233) = {33, 116};
Line(234) = {116, 24};
Line(235) = {24, 33};
Line(236) = {33, 124};
Line(237) = {124, 24};
Line(238) = {25, 26};
Line(239) = {26, 131};
Line(240) = {131, 25};
Line(241) = {25, 26};
Line(242) = {26, 132};
Line(243) = {132, 25};
Line(244) = {25, 34};
Line(245) = {34, 124};
Line(246) = {124, 25};
Line(247) = {25, 34};
Line(248) = {34, 132};
Line(249) = {132, 25};
Line(250) = {26, 27};
Line(251) = {27, 139};
Line(252) = {139, 26};
Line(253) = {26, 27};
Line(254) = {27, 140};
Line(255) = {140, 26};
Line(256) = {26, 35};
Line(257) = {35, 132};
Line(258) = {132, 26};
Line(259) = {26, 35};
Line(260) = {35, 140};
Line(261) = {140, 26};
Line(262) = {27, 36};
Line(263) = {36, 140};
Line(264) = {140, 27};
Line(265) = {28, 29};
Line(266) = {29, 84};
Line(267) = {84, 28};
Line(268) = {28, 29};
Line(269) = {29, 85};
Line(270) = {85, 28};
Line(271) = {28, 37};
Line(272) = {37, 85};
Line(273) = {85, 28};
Line(274) = {29, 30};
Line(275) = {30, 92};
Line(276) = {92, 29};
Line(277) = {29, 30};
Line(278) = {30, 93};
Line(279) = {93, 29};
Line(280) = {29, 38};
Line(281) = {38, 85};
Line(282) = {85, 29};
Line(283) = {29, 38};
Line(284) = {38, 93};
Line(285) = {93, 29};
Line(286) = {30, 31};
Line(287) = {31, 100};
Line(288) = {100, 30};
Line(289) = {30, 31};
Line(290) = {31, 101};
Line(291) = {101, 30};
Line(292) = {30, 39};
Line(293) = {39, 93};
Line(294) = {93, 30};
Line(295) = {30, 39};
Line(296) = {39, 101};
Line(297) = {101, 30};
Line(298) = {31, 32};
Line(299) = {32, 108};
Line(300) = {108, 31};
Line(301) = {31, 32};
Line(302) = {32, 109};
Line(303) = {109, 31};
Line(304) = {31, 40};
Line(305) = {40, 101};
Line(306) = {101, 31};
Line(307) = {31, 40};
Line(308) = {40, 109};
Line(309) = {109, 31};
Line(310) = {32, 33};
Line(311) = {33, 116};
Line(312) = {116, 32};
Line(313) = {32, 33};
Line(314) = {33, 117};
Line(315) = {117, 32};
Line(316) = {32, 41};
Line(317) = {41, 109};
Line(318) = {109, 32};
Line(319) = {32, 41};
Line(320) = {41, 117};
Line(321) = {117, 32};
Line(322) = {33, 34};
Line(323) = {34, 124};
Line(324) = {124, 33};
Line(325) = {33, 34};
Line(326) = {34, 125};
Line(327) = {125, 33};
Line(328) = {33, 42};
Line(329) = {42, 117};
Line(330) = {117, 33};
Line(331) = {33, 42};
Line(332) = {42, 125};
Line(333) = {125, 33};
Line(334) = {34, 35};
Line(335) = {35, 132};
Line(336) = {132, 34};
Line(337) = {34, 35};
Line(338) = {35, 133};
Line(339) = {133, 34};
Line(340) = {34, 43};
Line(341) = {43, 125};
Line(342) = {125, 34};
Line(343) = {34, 43};
Line(344) = {43, 133};
Line(345) = {133, 34};
Line(346) = {35, 36};
Line(347) = {36, 140};
Line(348) = {140, 35};
Line(349) = {35, 36};
Line(350) = {36, 141};
Line(351) = {141, 35};
Line(352) = {35, 44};
Line(353) = {44, 133};
Line(354) = {133, 35};
Line(355) = {35, 44};
Line(356) = {44, 141};
Line(357) = {141, 35};
Line(358) = {36, 45};
Line(359) = {45, 141};
Line(360) = {141, 36};
Line(361) = {37, 38};
Line(362) = {38, 85};
Line(363) = {85, 37};
Line(364) = {37, 38};
Line(365) = {38, 86};
Line(366) = {86, 37};
Line(367) = {37, 46};
Line(368) = {46, 86};
Line(369) = {86, 37};
Line(370) = {38, 39};
Line(371) = {39, 93};
Line(372) = {93, 38};
Line(373) = {38, 39};
Line(374) = {39, 94};
Line(375) = {94, 38};
Line(376) = {38, 47};
Line(377) = {47, 86};
Line(378) = {86, 38};
Line(379) = {38, 47};
Line(380) = {47, 94};
Line(381) = {94, 38};
Line(382) = {39, 40};
Line(383) = {40, 101};
Line(384) = {101, 39};
Line(385) = {39, 40};
Line(386) = {40, 102};
Line(387) = {102, 39};
Line(388) = {39, 48};
Line(389) = {48, 94};
Line(390) = {94, 39};
Line(391) = {39, 48};
Line(392) = {48, 102};
Line(393) = {102, 39};
Line(394) = {40, 41};
Line(395) = {41, 109};
Line(396) = {109, 40};
Line(397) = {40, 41};
Line(398) = {41, 110};
Line(399) = {110, 40};
Line(400) = {40, 49};
Line(401) = {49, 102};
Line(402) = {102, 40};
Line(403) = {40, 49};
Line(404) = {49, 110};
Line(405) = {110, 40};
Line(406) = {41, 42};
Line(407) = {42, 117};
Line(408) = {117, 41};
Line(409) = {41, 42};
Line(410) = {42, 118};
Line(411) = {118, 41};
Line(412) = {41, 50};
Line(413) = {50, 110};
Line(414) = {110, 41};
Line(415) = {41, 50};
Line(416) = {50, 118};
Line(417) = {118, 41};
Line(418) = {42, 43};
Line(419) = {43, 125};
Line(420) = {125, 42};
Line(421) = {42, 43};
Line(422) = {43, 126};
Line(423) = {126, 42};
Line(424) = {42, 51};
Line(425) = {51, 118};
Line(426) = {118, 42};
Line(427) = {42, 51};
Line(428) = {51, 126};
Line(429) = {126, 42};
Line(430) = {43, 44};
Line(431) = {44, 133};
Line(432) = {133, 43};
Line(433) = {43, 44};
Line(434) = {44, 134};
Line(435) = {134, 43};
Line(436) = {43, 52};
Line(437) = {52, 126};
Line(438) = {126, 43};
Line(439) = {43, 52};
Line(440) = {52, 134};
Line(441) = {134, 43};
Line(442) = {44, 45};
Line(443) = {45, 141};
Line(444) = {141, 44};
Line(445) = {44, 45};
Line(446) = {45, 142};
Line(447) = {142, 44};
Line(448) = {44, 53};
Line(449) = {53, 134};
Line(450) = {134, 44};
Line(451) = {44, 53};
Line(452) = {53, 142};
Line(453) = {142, 44};
Line(454) = {45, 54};
Line(455) = {54, 142};
Line(456) = {142, 45};
Line(457) = {46, 47};
Line(458) = {47, 86};
Line(459) = {86, 46};
Line(460) = {46, 47};
Line(461) = {47, 87};
Line(462) = {87, 46};
Line(463) = {46, 55};
Line(464) = {55, 87};
Line(465) = {87, 46};
Line(466) = {47, 48};
Line(467) = {48, 94};
Line(468) = {94, 47};
Line(469) = {47, 48};
Line(470) = {48, 95};
Line(471) = {95, 47};
Line(472) = {47, 56};
Line(473) = {56, 87};
Line(474) = {87, 47};
Line(475) = {47, 56};
Line(476) = {56, 95};
Line(477) = {95, 47};
Line(478) = {48, 49};
Line(479) = {49, 102};
Line(480) = {102, 48};
Line(481) = {48, 49};
Line(482) = {49, 103};
Line(483) = {103, 48};
Line(484) = {48, 57};
Line(485) = {57, 95};
Line(486) = {95, 48};
Line(487) = {48, 57};
Line(488) = {57, 103};
Line(489) = {103, 48};
Line(490) = {49, 50};
Line(491) = {50, 110};
Line(492) = {110, 49};
Line(493) = {49, 50};
Line(494) = {50, 111};
Line(495) = {111, 49};
Line(496) = {49, 58};
Line(497) = {58, 103};
Line(498) = {103, 49};
Line(499) = {49, 58};
Line(500) = {58, 111};
Line(501) = {111, 49};
Line(502) = {50, 51};
Line(503) = {51, 118};
Line(504) = {118, 50};
Line(505) = {50, 51};
Line(506) = {51, 119};
Line(507) = {119, 50};
Line(508) = {50, 59};
Line(509) = {59, 111};
Line(510) = {111, 50};
Line(511) = {50, 59};
Line(512) = {59, 119};
Line(513) = {119, 50};
Line(514) = {51, 52};
Line(515) = {52, 126};
Line(516) = {126, 51};
Line(517) = {51, 52};
Line(518) = {52, 127};
Line(519) = {127, 51};
Line(520) = {51, 60};
Line(521) = {60, 119};
Line(522) = {119, 51};
Line(523) = {51, 60};
Line(524) = {60, 127};
Line(525) = {127, 51};
Line(526) = {52, 53};
Line(527) = {53, 134};
Line(528) = {134, 52};
Line(529) = {52, 53};
Line(530) = {53, 135};
Line(531) = {135, 52};
Line(532) = {52, 61};
Line(533) = {61, 127};
Line(534) = {127, 52};
Line(535) = {52, 61};
Line(536) = {61, 135};
Line(537) = {135, 52};
Line(538) = {53, 54};
Line(539) = {54, 142};
Line(540) = {142, 53};
Line(541) = {53, 54};
Line(542) = {54, 143};
Line(543) = {143, 53};
Line(544) = {53, 62};
Line(545) = {62, 135};
Line(546) = {135, 53};
Line(547) = {53, 62};
Line(548) = {62, 143};
Line(549) = {143, 53};
Line(550) = {54, 63};
Line(551) = {63, 143};
Line(552) = {143, 54};
Line(553) = {55, 56};
Line(554) = {56, 87};
Line(555) = {87, 55};
Line(556) = {55, 56};
Line(557) = {56, 88};
Line(558) = {88, 55};
Line(559) = {55, 64};
Line(560) = {64, 88};
Line(561) = {88, 55};
Line(562) = {56, 57};
Line(563) = {57, 95};
Line(564) = {95, 56};
Line(565) = {56, 57};
Line(566) = {57, 96};
Line(567) = {96, 56};
Line(568) = {56, 65};
Line(569) = {65, 88};
Line(570) = {88, 56};
Line(571) = {56, 65};
Line(572) = {65, 96};
Line(573) = {96, 56};
Line(574) = {57, 58};
Line(575) = {58, 103};
Line(576) = {103, 57};
Line(577) = {57, 58};
Line(578) = {58, 104};
Line(579) = {104, 57};
Line(580) = {57, 66};
Line(581) = {66, 96};
Line(582) = {96, 57};
Line(583) = {57, 66};
Line(584) = {66, 104};
Line(585) = {104, 57};
Line(586) = {58, 59};
Line(587) = {59, 111};
Line(588) = {111, 58};
Line(589) = {58, 59};
Line(590) = {59, 112};
Line(591) = {112, 58};
Line(592) = {58, 67};
Line(593) = {67, 104};
Line(594) = {104, 58};
Line(595) = {58, 67};
Line(596) = {67, 112};
Line(597) = {112, 58};
Line(598) = {59, 60};
Line(599) = {60, 119};
Line(600) = {119, 59};
Line(601) = {59, 60};
Line(602) = {60, 120};
Line(603) = {120, 59};
Line(604) = {59, 68};
Line(605) = {68, 112};
Line(606) = {112, 59};
Line(607) = {59, 68};
Line(608) = {68, 120};
Line(609) = {120, 59};
Line(610) = {60, 61};
Line(611) = {61, 127};
Line(612) = {127, 60};
Line(613) = {60, 61};
Line(614) = {61, 128};
Line(615) = {128, 60};
Line(616) = {60, 69};
Line(617) = {69, 120};
Line(618) = {120, 60};
Line(619) = {60, 69};
Line(620) = {69, 128};
Line(621) = {128, 60};
Line(622) = {61, 62};
Line(623) = {62, 135};
Line(624) = {135, 61};
Line(625) = {61, 62};
Line(626) = {62, 136};
Line(627) = {136, 61};
Line(628) = {61, 70};
Line(629) = {70, 128};
Line(630) = {128, 61};
Line(631) = {61, 70};
Line(632) = {70, 136};
Line(633) = {136, 61};
Line(634) = {62, 63};
Line(635) = {63, 143};
Line(636) = {143, 62};
Line(637) = {62, 63};
Line(638) = {63, 144};
Line(639) = {144, 62};
Line(640) = {62, 71};
Line(641) = {71, 136};
Line(642) = {136, 62};
Line(643) = {62, 71};
Line(644) = {71, 144};
Line(645) = {144, 62};
Line(646) = {63, 72};
Line(647) = {72, 144};
Line(648) = {144, 63};
Line(649) = {64, 65};
Line(650) = {65, 88};
Line(651) = {88, 64};
Line(652) = {64, 65};
Line(653) = {65, 89};
Line(654) = {89, 64};
Line(655) = {64, 73};
Line(656) = {73, 89};
Line(657) = {89, 64};
Line(658) = {65, 66};
Line(659) = {66, 96};
Line(660) = {96, 65};
Line(661) = {65, 66};
Line(662) = {66, 97};
Line(663) = {97, 65};
Line(664) = {65, 74};
Line(665) = {74, 89};
Line(666) = {89, 65};
Line(667) = {65, 74};
Line(668) = {74, 97};
Line(669) = {97, 65};
Line(670) = {66, 67};
Line(671) = {67, 104};
Line(672) = {104, 66};
Line(673) = {66, 67};
Line(674) = {67, 105};
Line(675) = {105, 66};
Line(676) = {66, 75};
Line(677) = {75, 97};
Line(678) = {97, 66};
Line(679) = {66, 75};
Line(680) = {75, 105};
Line(681) = {105, 66};
Line(682) = {67, 68};
Line(683) = {68, 112};
Line(684) = {112, 67};
Line(685) = {67, 68};
Line(686) = {68, 113};
Line(687) = {113, 67};
Line(688) = {67, 76};
Line(689) = {76, 105};
Line(690) = {105, 67};
Line(691) = {67, 76};
Line(692) = {76, 113};
Line(693) = {113, 67};
Line(694) = {68, 69};
Line(695) = {69, 120};
Line(696) = {120, 68};
Line(697) = {68, 69};
Line(698) = {69, 121};
Line(699) = {121, 68};
Line(700) = {68, 77};
Line(701) = {77, 113};
Line(702) = {113, 68};
Line(703) = {68, 77};
Line(704) = {77, 121};
Line(705) = {121, 68};
Line(706) = {69, 70};
Line(707) = {70, 128};
Line(708) = {128, 69};
Line(709) = {69, 70};
Line(710) = {70, 129};
Line(711) = {129, 69};
Line(712) = {69, 78};
Line(713) = {78, 121};
Line(714) = {121, 69};
Line(715) = {69, 78};
Line(716) = {78, 129};
Line(717) = {129, 69};
Line(718) = {70, 71};
Line(719) = {71, 136};
Line(720) = {136, 70};
Line(721) = {70, 71};
Line(722) = {71, 137};
Line(723) = {137, 70};
Line(724) = {70, 79};
Line(725) = {79, 129};
Line(726) = {129, 70};
Line(727) = {70, 79};
Line(728) = {79, 137};
Line(729) = {137, 70};
Line(730) = {71, 72};
Line(731) = {72, 144};
Line(732) = {144, 71};
Line(733) = {71, 72};
Line(734) = {72, 145};
Line(735) = {145, 71};
Line(736) = {71, 80};
Line(737) = {80, 137};
Line(738) = {137, 71};
Line(739) = {71, 80};
Line(740) = {80, 145};
Line(741) = {145, 71};
Line(742) = {72, 81};
Line(743) = {81, 145};
Line(744) = {145, 72};
Line(745) = {73, 74};
Line(746) = {74, 89};
Line(747) = {89, 73};
Line(748) = {74, 75};
Line(749) = {75, 97};
Line(750) = {97, 74};
Line(751) = {75, 76};
Line(752) = {76, 105};
Line(753) = {105, 75};
Line(754) = {76, 77};
Line(755) = {77, 113};
Line(756) = {113, 76};
Line(757) = {77, 78};
Line(758) = {78, 121};
Line(759) = {121, 77};
Line(760) = {78, 79};
Line(761) = {79, 129};
Line(762) = {129, 78};
Line(763) = {79, 80};
Line(764) = {80, 137};
Line(765) = {137, 79};
Line(766) = {80, 81};
Line(767) = {81, 145};
Line(768) = {145, 80};

// Loops
Curve Loop(1) = {1, 2, 3};
Curve Loop(2) = {4, 5, 6};
Curve Loop(3) = {7, 8, 9};
Curve Loop(4) = {10, 11, 12};
Curve Loop(5) = {13, 14, 15};
Curve Loop(6) = {16, 17, 18};
Curve Loop(7) = {19, 20, 21};
Curve Loop(8) = {22, 23, 24};
Curve Loop(9) = {25, 26, 27};
Curve Loop(10) = {28, 29, 30};
Curve Loop(11) = {31, 32, 33};
Curve Loop(12) = {34, 35, 36};
Curve Loop(13) = {37, 38, 39};
Curve Loop(14) = {40, 41, 42};
Curve Loop(15) = {43, 44, 45};
Curve Loop(16) = {46, 47, 48};
Curve Loop(17) = {49, 50, 51};
Curve Loop(18) = {52, 53, 54};
Curve Loop(19) = {55, 56, 57};
Curve Loop(20) = {58, 59, 60};
Curve Loop(21) = {61, 62, 63};
Curve Loop(22) = {64, 65, 66};
Curve Loop(23) = {67, 68, 69};
Curve Loop(24) = {70, 71, 72};
Curve Loop(25) = {73, 74, 75};
Curve Loop(26) = {76, 77, 78};
Curve Loop(27) = {79, 80, 81};
Curve Loop(28) = {82, 83, 84};
Curve Loop(29) = {85, 86, 87};
Curve Loop(30) = {88, 89, 90};
Curve Loop(31) = {91, 92, 93};
Curve Loop(32) = {94, 95, 96};
Curve Loop(33) = {97, 98, 99};
Curve Loop(34) = {100, 101, 102};
Curve Loop(35) = {103, 104, 105};
Curve Loop(36) = {106, 107, 108};
Curve Loop(37) = {109, 110, 111};
Curve Loop(38) = {112, 113, 114};
Curve Loop(39) = {115, 116, 117};
Curve Loop(40) = {118, 119, 120};
Curve Loop(41) = {121, 122, 123};
Curve Loop(42) = {124, 125, 126};
Curve Loop(43) = {127, 128, 129};
Curve Loop(44) = {130, 131, 132};
Curve Loop(45) = {133, 134, 135};
Curve Loop(46) = {136, 137, 138};
Curve Loop(47) = {139, 140, 141};
Curve Loop(48) = {142, 143, 144};
Curve Loop(49) = {145, 146, 147};
Curve Loop(50) = {148, 149, 150};
Curve Loop(51) = {151, 152, 153};
Curve Loop(52) = {154, 155, 156};
Curve Loop(53) = {157, 158, 159};
Curve Loop(54) = {160, 161, 162};
Curve Loop(55) = {163, 164, 165};
Curve Loop(56) = {166, 167, 168};
Curve Loop(57) = {169, 170, 171};
Curve Loop(58) = {172, 173, 174};
Curve Loop(59) = {175, 176, 177};
Curve Loop(60) = {178, 179, 180};
Curve Loop(61) = {181, 182, 183};
Curve Loop(62) = {184, 185, 186};
Curve Loop(63) = {187, 188, 189};
Curve Loop(64) = {190, 191, 192};
Curve Loop(65) = {193, 194, 195};
Curve Loop(66) = {196, 197, 198};
Curve Loop(67) = {199, 200, 201};
Curve Loop(68) = {202, 203, 204};
Curve Loop(69) = {205, 206, 207};
Curve Loop(70) = {208, 209, 210};
Curve Loop(71) = {211, 212, 213};
Curve Loop(72) = {214, 215, 216};
Curve Loop(73) = {217, 218, 219};
Curve Loop(74) = {220, 221, 222};
Curve Loop(75) = {223, 224, 225};
Curve Loop(76) = {226, 227, 228};
Curve Loop(77) = {229, 230, 231};
Curve Loop(78) = {232, 233, 234};
Curve Loop(79) = {235, 236, 237};
Curve Loop(80) = {238, 239, 240};
Curve Loop(81) = {241, 242, 243};
Curve Loop(82) = {244, 245, 246};
Curve Loop(83) = {247, 248, 249};
Curve Loop(84) = {250, 251, 252};
Curve Loop(85) = {253, 254, 255};
Curve Loop(86) = {256, 257, 258};
Curve Loop(87) = {259, 260, 261};
Curve Loop(88) = {262, 263, 264};
Curve Loop(89) = {265, 266, 267};
Curve Loop(90) = {268, 269, 270};
Curve Loop(91) = {271, 272, 273};
Curve Loop(92) = {274, 275, 276};
Curve Loop(93) = {277, 278, 279};
Curve Loop(94) = {280, 281, 282};
Curve Loop(95) = {283, 284, 285};
Curve Loop(96) = {286, 287, 288};
Curve Loop(97) = {289, 290, 291};
Curve Loop(98) = {292, 293, 294};
Curve Loop(99) = {295, 296, 297};
Curve Loop(100) = {298, 299, 300};
Curve Loop(101) = {301, 302, 303};
Curve Loop(102) = {304, 305, 306};
Curve Loop(103) = {307, 308, 309};
Curve Loop(104) = {310, 311, 312};
Curve Loop(105) = {313, 314, 315};
Curve Loop(106) = {316, 317, 318};
Curve Loop(107) = {319, 320, 321};
Curve Loop(108) = {322, 323, 324};
Curve Loop(109) = {325, 326, 327};
Curve Loop(110) = {328, 329, 330};
Curve Loop(111) = {331, 332, 333};
Curve Loop(112) = {334, 335, 336};
Curve Loop(113) = {337, 338, 339};
Curve Loop(114) = {340, 341, 342};
Curve Loop(115) = {343, 344, 345};
Curve Loop(116) = {346, 347, 348};
Curve Loop(117) = {349, 350, 351};
Curve Loop(118) = {352, 353, 354};
Curve Loop(119) = {355, 356, 357};
Curve Loop(120) = {358, 359, 360};
Curve Loop(121) = {361, 362, 363};
Curve Loop(122) = {364, 365, 366};
Curve Loop(123) = {367, 368, 369};
Curve Loop(124) = {370, 371, 372};
Curve Loop(125) = {373, 374, 375};
Curve Loop(126) = {376, 377, 378};
Curve Loop(127) = {379, 380, 381};
Curve Loop(128) = {382, 383, 384};
Curve Loop(129) = {385, 386, 387};
Curve Loop(130) = {388, 389, 390};
Curve Loop(131) = {391, 392, 393};
Curve Loop(132) = {394, 395, 396};
Curve Loop(133) = {397, 398, 399};
Curve Loop(134) = {400, 401, 402};
Curve Loop(135) = {403, 404, 405};
Curve Loop(136) = {406, 407, 408};
Curve Loop(137) = {409, 410, 411};
Curve Loop(138) = {412, 413, 414};
Curve Loop(139) = {415, 416, 417};
Curve Loop(140) = {418, 419, 420};
Curve Loop(141) = {421, 422, 423};
Curve Loop(142) = {424, 425, 426};
Curve Loop(143) = {427, 428, 429};
Curve Loop(144) = {430, 431, 432};
Curve Loop(145) = {433, 434, 435};
Curve Loop(146) = {436, 437, 438};
Curve Loop(147) = {439, 440, 441};
Curve Loop(148) = {442, 443, 444};
Curve Loop(149) = {445, 446, 447};
Curve Loop(150) = {448, 449, 450};
Curve Loop(151) = {451, 452, 453};
Curve Loop(152) = {454, 455, 456};
Curve Loop(153) = {457, 458, 459};
Curve Loop(154) = {460, 461, 462};
Curve Loop(155) = {463, 464, 465};
Curve Loop(156) = {466, 467, 468};
Curve Loop(157) = {469, 470, 471};
Curve Loop(158) = {472, 473, 474};
Curve Loop(159) = {475, 476, 477};
Curve Loop(160) = {478, 479, 480};
Curve Loop(161) = {481, 482, 483};
Curve Loop(162) = {484, 485, 486};
Curve Loop(163) = {487, 488, 489};
Curve Loop(164) = {490, 491, 492};
Curve Loop(165) = {493, 494, 495};
Curve Loop(166) = {496, 497, 498};
Curve Loop(167) = {499, 500, 501};
Curve Loop(168) = {502, 503, 504};
Curve Loop(169) = {505, 506, 507};
Curve Loop(170) = {508, 509, 510};
Curve Loop(171) = {511, 512, 513};
Curve Loop(172) = {514, 515, 516};
Curve Loop(173) = {517, 518, 519};
Curve Loop(174) = {520, 521, 522};
Curve Loop(175) = {523, 524, 525};
Curve Loop(176) = {526, 527, 528};
Curve Loop(177) = {529, 530, 531};
Curve Loop(178) = {532, 533, 534};
Curve Loop(179) = {535, 536, 537};
Curve Loop(180) = {538, 539, 540};
Curve Loop(181) = {541, 542, 543};
Curve Loop(182) = {544, 545, 546};
Curve Loop(183) = {547, 548, 549};
Curve Loop(184) = {550, 551, 552};
Curve Loop(185) = {553, 554, 555};
Curve Loop(186) = {556, 557, 558};
Curve Loop(187) = {559, 560, 561};
Curve Loop(188) = {562, 563, 564};
Curve Loop(189) = {565, 566, 567};
Curve Loop(190) = {568, 569, 570};
Curve Loop(191) = {571, 572, 573};
Curve Loop(192) = {574, 575, 576};
Curve Loop(193) = {577, 578, 579};
Curve Loop(194) = {580, 581, 582};
Curve Loop(195) = {583, 584, 585};
Curve Loop(196) = {586, 587, 588};
Curve Loop(197) = {589, 590, 591};
Curve Loop(198) = {592, 593, 594};
Curve Loop(199) = {595, 596, 597};
Curve Loop(200) = {598, 599, 600};
Curve Loop(201) = {601, 602, 603};
Curve Loop(202) = {604, 605, 606};
Curve Loop(203) = {607, 608, 609};
Curve Loop(204) = {610, 611, 612};
Curve Loop(205) = {613, 614, 615};
Curve Loop(206) = {616, 617, 618};
Curve Loop(207) = {619, 620, 621};
Curve Loop(208) = {622, 623, 624};
Curve Loop(209) = {625, 626, 627};
Curve Loop(210) = {628, 629, 630};
Curve Loop(211) = {631, 632, 633};
Curve Loop(212) = {634, 635, 636};
Curve Loop(213) = {637, 638, 639};
Curve Loop(214) = {640, 641, 642};
Curve Loop(215) = {643, 644, 645};
Curve Loop(216) = {646, 647, 648};
Curve Loop(217) = {649, 650, 651};
Curve Loop(218) = {652, 653, 654};
Curve Loop(219) = {655, 656, 657};
Curve Loop(220) = {658, 659, 660};
Curve Loop(221) = {661, 662, 663};
Curve Loop(222) = {664, 665, 666};
Curve Loop(223) = {667, 668, 669};
Curve Loop(224) = {670, 671, 672};
Curve Loop(225) = {673, 674, 675};
Curve Loop(226) = {676, 677, 678};
Curve Loop(227) = {679, 680, 681};
Curve Loop(228) = {682, 683, 684};
Curve Loop(229) = {685, 686, 687};
Curve Loop(230) = {688, 689, 690};
Curve Loop(231) = {691, 692, 693};
Curve Loop(232) = {694, 695, 696};
Curve Loop(233) = {697, 698, 699};
Curve Loop(234) = {700, 701, 702};
Curve Loop(235) = {703, 704, 705};
Curve Loop(236) = {706, 707, 708};
Curve Loop(237) = {709, 710, 711};
Curve Loop(238) = {712, 713, 714};
Curve Loop(239) = {715, 716, 717};
Curve Loop(240) = {718, 719, 720};
Curve Loop(241) = {721, 722, 723};
Curve Loop(242) = {724, 725, 726};
Curve Loop(243) = {727, 728, 729};
Curve Loop(244) = {730, 731, 732};
Curve Loop(245) = {733, 734, 735};
Curve Loop(246) = {736, 737, 738};
Curve Loop(247) = {739, 740, 741};
Curve Loop(248) = {742, 743, 744};
Curve Loop(249) = {745, 746, 747};
Curve Loop(250) = {748, 749, 750};
Curve Loop(251) = {751, 752, 753};
Curve Loop(252) = {754, 755, 756};
Curve Loop(253) = {757, 758, 759};
Curve Loop(254) = {760, 761, 762};
Curve Loop(255) = {763, 764, 765};
Curve Loop(256) = {766, 767, 768};

// Plane surfaces 
Plane Surface(1) = {1};
Plane Surface(2) = {2};
Plane Surface(3) = {3};
Plane Surface(4) = {4};
Plane Surface(5) = {5};
Plane Surface(6) = {6};
Plane Surface(7) = {7};
Plane Surface(8) = {8};
Plane Surface(9) = {9};
Plane Surface(10) = {10};
Plane Surface(11) = {11};
Plane Surface(12) = {12};
Plane Surface(13) = {13};
Plane Surface(14) = {14};
Plane Surface(15) = {15};
Plane Surface(16) = {16};
Plane Surface(17) = {17};
Plane Surface(18) = {18};
Plane Surface(19) = {19};
Plane Surface(20) = {20};
Plane Surface(21) = {21};
Plane Surface(22) = {22};
Plane Surface(23) = {23};
Plane Surface(24) = {24};
Plane Surface(25) = {25};
Plane Surface(26) = {26};
Plane Surface(27) = {27};
Plane Surface(28) = {28};
Plane Surface(29) = {29};
Plane Surface(30) = {30};
Plane Surface(31) = {31};
Plane Surface(32) = {32};
Plane Surface(33) = {33};
Plane Surface(34) = {34};
Plane Surface(35) = {35};
Plane Surface(36) = {36};
Plane Surface(37) = {37};
Plane Surface(38) = {38};
Plane Surface(39) = {39};
Plane Surface(40) = {40};
Plane Surface(41) = {41};
Plane Surface(42) = {42};
Plane Surface(43) = {43};
Plane Surface(44) = {44};
Plane Surface(45) = {45};
Plane Surface(46) = {46};
Plane Surface(47) = {47};
Plane Surface(48) = {48};
Plane Surface(49) = {49};
Plane Surface(50) = {50};
Plane Surface(51) = {51};
Plane Surface(52) = {52};
Plane Surface(53) = {53};
Plane Surface(54) = {54};
Plane Surface(55) = {55};
Plane Surface(56) = {56};
Plane Surface(57) = {57};
Plane Surface(58) = {58};
Plane Surface(59) = {59};
Plane Surface(60) = {60};
Plane Surface(61) = {61};
Plane Surface(62) = {62};
Plane Surface(63) = {63};
Plane Surface(64) = {64};
Plane Surface(65) = {65};
Plane Surface(66) = {66};
Plane Surface(67) = {67};
Plane Surface(68) = {68};
Plane Surface(69) = {69};
Plane Surface(70) = {70};
Plane Surface(71) = {71};
Plane Surface(72) = {72};
Plane Surface(73) = {73};
Plane Surface(74) = {74};
Plane Surface(75) = {75};
Plane Surface(76) = {76};
Plane Surface(77) = {77};
Plane Surface(78) = {78};
Plane Surface(79) = {79};
Plane Surface(80) = {80};
Plane Surface(81) = {81};
Plane Surface(82) = {82};
Plane Surface(83) = {83};
Plane Surface(84) = {84};
Plane Surface(85) = {85};
Plane Surface(86) = {86};
Plane Surface(87) = {87};
Plane Surface(88) = {88};
Plane Surface(89) = {89};
Plane Surface(90) = {90};
Plane Surface(91) = {91};
Plane Surface(92) = {92};
Plane Surface(93) = {93};
Plane Surface(94) = {94};
Plane Surface(95) = {95};
Plane Surface(96) = {96};
Plane Surface(97) = {97};
Plane Surface(98) = {98};
Plane Surface(99) = {99};
Plane Surface(100) = {100};
Plane Surface(101) = {101};
Plane Surface(102) = {102};
Plane Surface(103) = {103};
Plane Surface(104) = {104};
Plane Surface(105) = {105};
Plane Surface(106) = {106};
Plane Surface(107) = {107};
Plane Surface(108) = {108};
Plane Surface(109) = {109};
Plane Surface(110) = {110};
Plane Surface(111) = {111};
Plane Surface(112) = {112};
Plane Surface(113) = {113};
Plane Surface(114) = {114};
Plane Surface(115) = {115};
Plane Surface(116) = {116};
Plane Surface(117) = {117};
Plane Surface(118) = {118};
Plane Surface(119) = {119};
Plane Surface(120) = {120};
Plane Surface(121) = {121};
Plane Surface(122) = {122};
Plane Surface(123) = {123};
Plane Surface(124) = {124};
Plane Surface(125) = {125};
Plane Surface(126) = {126};
Plane Surface(127) = {127};
Plane Surface(128) = {128};
Plane Surface(129) = {129};
Plane Surface(130) = {130};
Plane Surface(131) = {131};
Plane Surface(132) = {132};
Plane Surface(133) = {133};
Plane Surface(134) = {134};
Plane Surface(135) = {135};
Plane Surface(136) = {136};
Plane Surface(137) = {137};
Plane Surface(138) = {138};
Plane Surface(139) = {139};
Plane Surface(140) = {140};
Plane Surface(141) = {141};
Plane Surface(142) = {142};
Plane Surface(143) = {143};
Plane Surface(144) = {144};
Plane Surface(145) = {145};
Plane Surface(146) = {146};
Plane Surface(147) = {147};
Plane Surface(148) = {148};
Plane Surface(149) = {149};
Plane Surface(150) = {150};
Plane Surface(151) = {151};
Plane Surface(152) = {152};
Plane Surface(153) = {153};
Plane Surface(154) = {154};
Plane Surface(155) = {155};
Plane Surface(156) = {156};
Plane Surface(157) = {157};
Plane Surface(158) = {158};
Plane Surface(159) = {159};
Plane Surface(160) = {160};
Plane Surface(161) = {161};
Plane Surface(162) = {162};
Plane Surface(163) = {163};
Plane Surface(164) = {164};
Plane Surface(165) = {165};
Plane Surface(166) = {166};
Plane Surface(167) = {167};
Plane Surface(168) = {168};
Plane Surface(169) = {169};
Plane Surface(170) = {170};
Plane Surface(171) = {171};
Plane Surface(172) = {172};
Plane Surface(173) = {173};
Plane Surface(174) = {174};
Plane Surface(175) = {175};
Plane Surface(176) = {176};
Plane Surface(177) = {177};
Plane Surface(178) = {178};
Plane Surface(179) = {179};
Plane Surface(180) = {180};
Plane Surface(181) = {181};
Plane Surface(182) = {182};
Plane Surface(183) = {183};
Plane Surface(184) = {184};
Plane Surface(185) = {185};
Plane Surface(186) = {186};
Plane Surface(187) = {187};
Plane Surface(188) = {188};
Plane Surface(189) = {189};
Plane Surface(190) = {190};
Plane Surface(191) = {191};
Plane Surface(192) = {192};
Plane Surface(193) = {193};
Plane Surface(194) = {194};
Plane Surface(195) = {195};
Plane Surface(196) = {196};
Plane Surface(197) = {197};
Plane Surface(198) = {198};
Plane Surface(199) = {199};
Plane Surface(200) = {200};
Plane Surface(201) = {201};
Plane Surface(202) = {202};
Plane Surface(203) = {203};
Plane Surface(204) = {204};
Plane Surface(205) = {205};
Plane Surface(206) = {206};
Plane Surface(207) = {207};
Plane Surface(208) = {208};
Plane Surface(209) = {209};
Plane Surface(210) = {210};
Plane Surface(211) = {211};
Plane Surface(212) = {212};
Plane Surface(213) = {213};
Plane Surface(214) = {214};
Plane Surface(215) = {215};
Plane Surface(216) = {216};
Plane Surface(217) = {217};
Plane Surface(218) = {218};
Plane Surface(219) = {219};
Plane Surface(220) = {220};
Plane Surface(221) = {221};
Plane Surface(222) = {222};
Plane Surface(223) = {223};
Plane Surface(224) = {224};
Plane Surface(225) = {225};
Plane Surface(226) = {226};
Plane Surface(227) = {227};
Plane Surface(228) = {228};
Plane Surface(229) = {229};
Plane Surface(230) = {230};
Plane Surface(231) = {231};
Plane Surface(232) = {232};
Plane Surface(233) = {233};
Plane Surface(234) = {234};
Plane Surface(235) = {235};
Plane Surface(236) = {236};
Plane Surface(237) = {237};
Plane Surface(238) = {238};
Plane Surface(239) = {239};
Plane Surface(240) = {240};
Plane Surface(241) = {241};
Plane Surface(242) = {242};
Plane Surface(243) = {243};
Plane Surface(244) = {244};
Plane Surface(245) = {245};
Plane Surface(246) = {246};
Plane Surface(247) = {247};
Plane Surface(248) = {248};
Plane Surface(249) = {249};
Plane Surface(250) = {250};
Plane Surface(251) = {251};
Plane Surface(252) = {252};
Plane Surface(253) = {253};
Plane Surface(254) = {254};
Plane Surface(255) = {255};
Plane Surface(256) = {256};

// Physical surfaces 
Physical Surface(1) = {1, 2, 3, 4, 5, 6, 7, 8, 9, 10, 11, 12, 13, 14, 15, 16, 17, 18, 19, 20, 21, 22, 23, 24, 25, 26, 27, 28, 29, 30, 31, 32, 33, 34, 35, 36, 37, 38, 39, 40, 41, 42, 43, 44, 45, 46, 47, 48, 49, 50, 51, 52, 53, 54, 55, 56, 57, 58, 59, 60, 61, 62, 63, 64, 65, 66, 67, 68, 69, 70, 71, 72, 73, 74, 75, 76, 77, 78, 79, 80, 81, 82, 83, 84, 85, 86, 87, 88, 89, 90, 91, 92, 93, 94, 95, 96, 97, 98, 99, 100, 101, 102, 103, 104, 105, 106, 107, 108, 109, 110, 111, 112, 113, 114, 115, 116, 117, 118, 119, 120, 121, 122, 123, 124, 125, 126, 127, 128, 129, 130, 131, 132, 133, 134, 135, 136, 137, 138, 139, 140, 141, 142, 143, 144, 145, 146, 147, 148, 149, 150, 151, 152, 153, 154, 155, 156, 157, 158, 159, 160, 161, 162, 163, 164, 165, 166, 167, 168, 169, 170, 171, 172, 173, 174, 175, 176, 177, 178, 179, 180, 181, 182, 183, 184, 185, 186, 187, 188, 189, 190, 191, 192, 193, 194, 195, 196, 197, 198, 199, 200, 201, 202, 203, 204, 205, 206, 207, 208, 209, 210, 211, 212, 213, 214, 215, 216, 217, 218, 219, 220, 221, 222, 223, 224, 225, 226, 227, 228, 229, 230, 231, 232, 233, 234, 235, 236, 237, 238, 239, 240, 241, 242, 243, 244, 245, 246, 247, 248, 249, 250, 251, 252, 253, 254, 255, 256};
