{
  "config": "saddle-from-compressed",
  "nodes": [[-0.25, -0.25, 0.0], [-0.28371129627691855, -0.13918430968115475, 0.0], [-0.25938845861461846, -0.06506431422584516, 0.0], [-0.2851574991279301, 0.04310282566178425, 0.0], [-0.26765937153660957, 0.10682409877168823, 0.0], [-0.28490594164607913, 0.21736069417884374, 0.0], [-0.2747716597432665, 0.2819842301129529, 0.0], [-0.28293710664380023, 0.39045074806320923, 0.0], [-0.28476411767863763, 0.46754264274219925, 0.0], [-0.16102841326547992, -0.16478881354106206, 0.0], [-0.19460849941099004, -0.0797899517194191, 0.0], [-0.16153764308271248, 0.029774181727881644, 0.0], [-0.1918021695461966, 0.10153517660402299, 0.0], [-0.15487634823777166, 0.2081332829661327, 0.0], [-0.1843908603986579, 0.284564868079856, 0.0], [-0.15289910359498998, 0.3894878682159083, 0.0], [-0.18622092052572536, 0.48356972240158, 0.0], [-0.17845663826380154, 0.5765942323060583, 0.0], [-0.06457768472977929, -0.2732073217783376, 0.0], [-0.08223672557594378, -0.1723401949591082, 0.0], [-0.0686156588938033, -0.07036303519909488, 0.0], [-0.08460171842018682, 0.02372322930010054, 0.0], [-0.07248204159248944, 0.12075316120307564, 0.0], [-0.08699621559620244, 0.2142771047339072, 0.0], [-0.07602468717251086, 0.3135620637227177, 0.0], [-0.09062940201668968, 0.41302606609797626, 0.0], [-0.08038273693412218, 0.528985729256101, 0.0], [0.025232144993095784, -0.20169223147342422, 0.0], [0.01060596800059236, -0.10996408481045722, 0.0], [0.02149020493513286, 0.008826413609629028, 0.0], [0.00813596696639135, 0.07960757158274699, 0.0], [0.021192954448199033, 0.20159038988069633, 0.0], [0.007274423383215295, 0.27109442898978514, 0.0], [0.02285166349092413, 0.39366474718423033, 0.0], [0.008640562419063968, 0.47616789799827874, 0.0], [0.016563682834254412, 0.5881759736946693, 0.0], [0.11392669056927515, -0.27970004374664925, 0.0], [0.11236613988071116, -0.18391261643149717, 0.0], [0.11053750091511513, -0.0716724725738917, 0.0], [0.10910063971376811, 0.016522427098382544, 0.0], [0.10731687785864313, 0.12600807090201516, 0.0], [0.10595418543087175, 0.2096498554754467, 0.0], [0.10411422478846996, 0.32258563238306937, 0.0], [0.10256205611451752, 0.41785543250441, 0.0], [0.10046539588751308, 0.5465469507367736, 0.0], [0.20003303685165025, -0.1988443802435935, 0.0], [0.21166338674443821, -0.10668843190836144, 0.0], [0.1969152544285478, 0.011684442532814714, 0.0], [0.20795668315564658, 0.0828630878775416, 0.0], [0.19093295865200016, 0.20435580959664468, 0.0], [0.2025799657156575, 0.2742763951978962, 0.0], [0.1830182161087313, 0.39627419718987045, 0.0], [0.19453413766858557, 0.4791965021443391, 0.0], [0.18296648827065976, 0.5908870314909611, 0.0], [0.2921248284200434, -0.2673959344338186, 0.0], [0.30648874590982406, -0.16600703039971848, 0.0], [0.2895529252657355, -0.06452774442471303, 0.0], [0.3024656228819786, 0.03002940245783517, 0.0], [0.28719155527835144, 0.1266129964302411, 0.0], [0.2986514445957875, 0.22056017181082221, 0.0], [0.2844514804371674, 0.3194349786492616, 0.0], [0.29580830203483327, 0.41932196325909943, 0.0], [0.2817896156729933, 0.534886291915257, 0.0], [0.38499260386386136, -0.15589305443702106, 0.0], [0.41578600084102, -0.06984532729985848, 0.0], [0.3791635841511674, 0.038583298502817456, 0.0], [0.40707439890376357, 0.11129218510815096, 0.0], [0.36669567894320476, 0.21663078226819202, 0.0], [0.39370471528366946, 0.29398334420148364, 0.0], [0.3588117721479528, 0.397824714615916, 0.0], [0.3890510832895724, 0.4929421344041405, 0.0], [0.37826058942226126, 0.5856643472989518, 0.0], [0.47669275171987424, -0.2381607420609205, 0.0], [0.5067763157703187, -0.1263055855005147, 0.0], [0.48005187025665064, -0.05301733545635497, 0.0], [0.5022836582536258, 0.05593196354065967, 0.0], [0.4827190466869471, 0.11904933278126124, 0.0], [0.49635568272951003, 0.23008920182265397, 0.0], [0.48412163875073844, 0.29434819805549994, 0.0], [0.48874934909461265, 0.40302317180712316, 0.0], [0.4880640731981842, 0.4801336677947873, 0.0]],
  "panels": [[0, 9, 10, 1], [9, 18, 19, 10], [18, 27, 28, 19], [27, 36, 37, 28], [36, 45, 46, 37], [45, 54, 55, 46], [54, 63, 64, 55], [63, 72, 73, 64], [1, 10, 11, 2], [10, 19, 20, 11], [19, 28, 29, 20], [28, 37, 38, 29], [37, 46, 47, 38], [46, 55, 56, 47], [55, 64, 65, 56], [64, 73, 74, 65], [2, 11, 12, 3], [11, 20, 21, 12], [20, 29, 30, 21], [29, 38, 39, 30], [38, 47, 48, 39], [47, 56, 57, 48], [56, 65, 66, 57], [65, 74, 75, 66], [3, 12, 13, 4], [12, 21, 22, 13], [21, 30, 31, 22], [30, 39, 40, 31], [39, 48, 49, 40], [48, 57, 58, 49], [57, 66, 67, 58], [66, 75, 76, 67], [4, 13, 14, 5], [13, 22, 23, 14], [22, 31, 32, 23], [31, 40, 41, 32], [40, 49, 50, 41], [49, 58, 59, 50], [58, 67, 68, 59], [67, 76, 77, 68], [5, 14, 15, 6], [14, 23, 24, 15], [23, 32, 33, 24], [32, 41, 42, 33], [41, 50, 51, 42], [50, 59, 60, 51], [59, 68, 69, 60], [68, 77, 78, 69], [6, 15, 16, 7], [15, 24, 25, 16], [24, 33, 34, 25], [33, 42, 43, 34], [42, 51, 52, 43], [51, 60, 61, 52], [60, 69, 70, 61], [69, 78, 79, 70], [7, 16, 17, 8], [16, 25, 26, 17], [25, 34, 35, 26], [34, 43, 44, 35], [43, 52, 53, 44], [52, 61, 62, 53], [61, 70, 71, 62], [70, 79, 80, 71]],
  "supports": [
    [31, 0, 0, 1],
    [39, 1, 1, 1],
    [40, 1, 1, 1],
    [49, 0, 0, 1]
  ],
  "loads": [
    [36, 0,  0.2498, -1.2489],
    [44, 0, -0.1342, -0.67103],
    [3, 0.1733, 0, 0.3465],
    [5, 0.1733, 0, 0.3465],
    [75, -0.1733, 0, 0.3465],
    [77, -0.1733, 0, 0.3465]
  ],
  "relevant_dof": 134,
  "ModElastic": 4000000000.0,
  "Poisson": 0.3,
  "Thickness": 8e-05,
  "LScaleFactor": 2,
  "maxIcr": 50,
  "maxLmd": 1400,
  "tol": 1e-5,
  "initialLoadFactor": 15,
  "multiply_load": 1e-3,
  "verbose": 1
}
