solid triangle

facet normal 0.51536425 0.78131323 0.35206436
    outer loop
        vertex 0.25780784 0.21011094 0.14105236
        vertex 0.29636127 0.22319726 0.05557488
        vertex 0.24990295 0.25607910 0.05060971
    endloop
endfacet

endsolid triangle
