// Mesh size
ms = 0.005;

// Points
Point(1) = {-0.47320508, 0.41961524, 0.25, ms};
Point(2) = {0.1330127, 0.76961524, 0.25, ms};
Point(3) = {-0.31339746, 0.74282032, 0.25, ms};

// Lines
Line(1) = {1, 2};
Line(2) = {2, 3};
Line(3) = {3, 1};

// Loops
Curve Loop(1) = {1, 2, 3};

// Plane surface
Plane Surface(1) = {1};

// Physical surface
Physical Surface(1) = {1};

