45.55476794409408
47.60771253069494
49.75930642761111
52.01579622300575
54.384026363063064
56.87146058148305
59.48621437913982
62.237094300827664
65.13364151582253
68.18617788323326
71.40585285391931
74.80468946032644
78.39562737576846
82.19256063664268
86.210367148726
90.46492657506045
94.97312267005518
99.7528256403766
104.82284975696837
110.20288131610215
115.91337227340435
121.97539558757875
128.41045963806354
135.24028111663802
142.48651855885146
150.17047208629322
158.31275873710328
166.93297657115596
176.04937401293998
185.67854304013548
